{
	"name" : "jquery",
	"description" : "Description de l'implémentation",
	"logo" : "images/jquery.png",
	"author" : "mimiz",
	"email" : "me@mimiz.fr",
	"url" : "http://www.mimiz.fr",
	"framework" : [
		{
			"name" : "jquery",
			"version" : "1.8"
		}
	]
}